<?xml version="1.0" encoding="utf-8"?>
<!-- Generator: Adobe Illustrator 24.1.2, SVG Export Plug-In . SVG Version: 6.00 Build 0)  -->
<svg version="1.1" id="Layer_1" xmlns="http://www.w3.org/2000/svg" xmlns:xlink="http://www.w3.org/1999/xlink" x="0px" y="0px"
	 viewBox="0 0 15.2 14.1" style="enable-background:new 0 0 15.2 14.1;" xml:space="preserve">
<style type="text/css">
	.st0{fill:#003e58;}
</style>
<g>
	<path class="st0" d="M0,6.4h6.9V0h1.4v6.4h6.9v1.3H8.3v6.4H6.9V7.7H0V6.4z"/>
</g>
</svg>
